[
    {
        "subreddit": "love",
        "id": "18bt75h",
        "time": "1701902544",
        "background_credit": "bbswitzer",
        "reddit_title": "I 25m think that my purpose in life is to build others up until they are strong enough to leave",
        "filename": "I 25m think that my purpose in life is to build others up until they are strong enough to leave.mp4"
    },
    {
        "subreddit": "love",
        "id": "18blxhy",
        "time": "1701902839",
        "background_credit": "bbswitzer",
        "reddit_title": "It found me when I was already given up and least expecting",
        "filename": "It found me when I was already given up and least expecting.mp4"
    },
    {
        "subreddit": "memes",
        "id": "18c3s66",
        "time": "1701904340",
        "background_credit": "bbswitzer",
        "reddit_title": "Too close",
        "filename": "Too close.mp4"
    },
    {
        "subreddit": "memes",
        "id": "18c9mse",
        "time": "1701904597",
        "background_credit": "bbswitzer",
        "reddit_title": "Whiteheads",
        "filename": "Whiteheads.mp4"
    },
    {
        "subreddit": "python",
        "id": "18bkywh",
        "time": "1701961964",
        "background_credit": "bbswitzer",
        "reddit_title": "Its Christmas day You wake up run to the tree tear open the largest package with your name on it FastAPI has added _____",
        "filename": "Its Christmas day You wake up run to the tree tear open the largest package with your name on it FastAPI has added _____.mp4"
    },
    {
        "subreddit": "programming",
        "id": "18crnmz",
        "time": "1701963819",
        "background_credit": "bbswitzer",
        "reddit_title": "Death by a thousand microservices",
        "filename": "Death by a thousand microservices.mp4"
    },
    {
        "subreddit": "",
        "id": "18bjv0y",
        "time": "1701967835",
        "background_credit": "",
        "reddit_title": "skipped",
        "filename": ""
    },
    {
        "subreddit": "",
        "id": "18cli8a",
        "time": "1701967965",
        "background_credit": "",
        "reddit_title": "skipped",
        "filename": ""
    },
    {
        "subreddit": "",
        "id": "18csb4l",
        "time": "1701970711",
        "background_credit": "",
        "reddit_title": "skipped",
        "filename": ""
    },
    {
        "subreddit": "",
        "id": "18cf8jj",
        "time": "1701973900",
        "background_credit": "",
        "reddit_title": "skipped",
        "filename": ""
    },
    {
        "subreddit": "",
        "id": "18chum4",
        "time": "1701973943",
        "background_credit": "",
        "reddit_title": "skipped",
        "filename": ""
    },
    {
        "subreddit": "love",
        "id": "18bve4w",
        "time": "1701974171",
        "background_credit": "bbswitzer",
        "reddit_title": "Help needed What have you done to live without love",
        "filename": "Help needed What have you done to live without love.mp4"
    },
    {
        "subreddit": "",
        "id": "18ckibm",
        "time": "1701975177",
        "background_credit": "",
        "reddit_title": "skipped",
        "filename": ""
    },
    {
        "subreddit": "",
        "id": "18cs825",
        "time": "1701975245",
        "background_credit": "",
        "reddit_title": "skipped",
        "filename": ""
    },
    {
        "subreddit": "memes",
        "id": "18clyfn",
        "time": "1701975567",
        "background_credit": "bbswitzer",
        "reddit_title": "My response to uPsychonautSurrealitys post",
        "filename": "My response to uPsychonautSurrealitys post.mp4"
    },
    {
        "subreddit": "memes",
        "id": "18crdgt",
        "time": "1701976831",
        "background_credit": "bbswitzer",
        "reddit_title": "They did it or are about to and I commend them for it",
        "filename": "They did it or are about to and I commend them for it.mp4"
    },
    {
        "subreddit": "learnpython",
        "id": "18dl7ol",
        "time": "1702053206",
        "background_credit": "bbswitzer",
        "reddit_title": "Show up your code and and get a thoughtful feedback from 25 years developer",
        "filename": "Show up your code and and get a thoughtful feedback from 25 years developer.mp4"
    },
    {
        "subreddit": "learnpython",
        "id": "18ta8p0",
        "time": "1703851927",
        "background_credit": "bbswitzer",
        "reddit_title": "Beginner here with a stupid question from automate the boring stuff",
        "filename": "Beginner here with a stupid question from automate the boring stuff.mp4"
    },
    {
        "subreddit": "learnpython",
        "id": "18tjcjh",
        "time": "1703866311",
        "background_credit": "bbswitzer",
        "reddit_title": "How old were you when you just began using and learning about Python",
        "filename": "How old were you when you just began using and learning about Python.mp4"
    },
    {
        "subreddit": "learnpython",
        "id": "18g64k2",
        "time": "1703937793",
        "background_credit": "bbswitzer",
        "reddit_title": "What python libraries should every dev know",
        "filename": "What python libraries should every dev know.mp4"
    },
    {
        "subreddit": "learnpython",
        "id": "188l3j4",
        "time": "1703940378",
        "background_credit": "bbswitzer",
        "reddit_title": "2000 free sign ups available for the Automate the Boring Stuff with Python online course Dec 2023",
        "filename": "2000 free sign ups available for the Automate the Boring Stuff with Python online course Dec 2023.mp4"
    }
]